9.200006000000000483e+01,4.400000000000000000e+01
9.220006999999999664e+01,4.400000000000000000e+01
9.240008000000000266e+01,4.400000000000000000e+01
9.260000999999999749e+01,4.400000000000000000e+01
9.280003000000000668e+01,4.400000000000000000e+01
9.300003999999999849e+01,4.400000000000000000e+01
9.320005999999999347e+01,5.000000000000000000e+01
9.340006999999999948e+01,5.600000000000000000e+01
9.360000999999999749e+01,5.600000000000000000e+01
9.380002000000000351e+01,6.700000000000000000e+01
9.400002999999999531e+01,6.800000000000000000e+01
9.420005000000000450e+01,6.800000000000000000e+01
9.440005999999999631e+01,7.300000000000000000e+01
9.460008999999999446e+01,8.000000000000000000e+01
9.480002000000000351e+01,8.000000000000000000e+01
9.500002999999999531e+01,8.000000000000000000e+01
9.520004000000000133e+01,8.400000000000000000e+01
9.540005999999999631e+01,9.200000000000000000e+01
9.560007000000000232e+01,9.200000000000000000e+01
9.580001000000000033e+01,9.200000000000000000e+01
9.600001000000000317e+01,9.200000000000000000e+01
9.620004000000000133e+01,1.040000000000000000e+02
9.640004999999999313e+01,1.080000000000000000e+02
9.660007000000000232e+01,1.080000000000000000e+02
9.680002000000000351e+01,1.080000000000000000e+02
9.700003999999999849e+01,1.080000000000000000e+02
9.720005999999999347e+01,1.220000000000000000e+02
9.740008000000000266e+01,1.210000000000000000e+02
9.760000999999999749e+01,1.210000000000000000e+02
9.780004999999999882e+01,1.210000000000000000e+02
9.800006000000000483e+01,1.240000000000000000e+02
9.820000000000000284e+01,1.380000000000000000e+02
9.840006999999999948e+01,1.380000000000000000e+02
9.860000999999999749e+01,1.380000000000000000e+02
9.880003999999999564e+01,1.380000000000000000e+02
9.900005000000000166e+01,1.430000000000000000e+02
9.920009000000000299e+01,1.550000000000000000e+02
9.940000999999999465e+01,1.550000000000000000e+02
9.960003000000000384e+01,1.550000000000000000e+02
9.980006000000000199e+01,1.550000000000000000e+02
1.000001000000000033e+02,1.710000000000000000e+02
1.002000000000000028e+02,1.710000000000000000e+02
1.004000000000000057e+02,1.710000000000000000e+02
1.005999999999999943e+02,1.710000000000000000e+02
1.007999999999999972e+02,1.800000000000000000e+02
1.010000000000000000e+02,1.870000000000000000e+02
1.012000000000000028e+02,1.870000000000000000e+02
1.014000000000000057e+02,1.870000000000000000e+02
1.015999999999999943e+02,1.880000000000000000e+02
1.017999999999999972e+02,2.020000000000000000e+02
